{"count":26124,"next":"https://rebrickable.com/api/v3/lego/sets/?key=2cce541545b354fb7436d1d918198032&ordering=-year&page=2&page_size=10","previous":null,"results":[{"set_num":"30712-1","name":"Celebration Cake","year":2026,"theme_id":505,"num_parts":9,"set_img_url":"https://cdn.rebrickable.com/media/sets/30712-1/164265.jpg","set_url":"https://rebrickable.com/sets/30712-1/celebration-cake/","last_modified_dt":"2026-01-05T02:37:46.730433Z"},{"set_num":"71512-1","name":"Crocodile Submarine","year":2026,"theme_id":749,"num_parts":1107,"set_img_url":"https://cdn.rebrickable.com/media/sets/71512-1/164799.jpg","set_url":"https://rebrickable.com/sets/71512-1/crocodile-submarine/","last_modified_dt":"2025-12-02T15:03:54.844161Z"},{"set_num":"6614219-1","name":"Blooming Heart","year":2026,"theme_id":598,"num_parts":47,"set_img_url":"https://cdn.rebrickable.com/media/sets/6614219-1/168548.jpg","set_url":"https://rebrickable.com/sets/6614219-1/blooming-heart/","last_modified_dt":"2026-02-15T07:51:35.964697Z"},{"set_num":"21589-1","name":"Mini Biomes","year":2026,"theme_id":577,"num_parts":797,"set_img_url":"https://cdn.rebrickable.com/media/sets/21589-1/162550.jpg","set_url":"https://rebrickable.com/sets/21589-1/mini-biomes/","last_modified_dt":"2025-10-25T11:08:38.426163Z"},{"set_num":"10473-1","name":"Fire Truck with Hose and Firefighter","year":2026,"theme_id":632,"num_parts":28,"set_img_url":"https://cdn.rebrickable.com/media/sets/10473-1/164109.jpg","set_url":"https://rebrickable.com/sets/10473-1/fire-truck-with-hose-and-firefighter/","last_modified_dt":"2026-01-05T01:09:33.875725Z"},{"set_num":"40878-1","name":"Teenage Mutant Ninja Turtles Figures","year":2026,"theme_id":610,"num_parts":0,"set_img_url":"https://cdn.rebrickable.com/media/sets/40878-1/167973.jpg","set_url":"https://rebrickable.com/sets/40878-1/teenage-mutant-ninja-turtles-figures/","last_modified_dt":"2026-02-01T16:29:27.376172Z"},{"set_num":"40856-1","name":"The Mandalorian and Grogu: Allies & Villains","year":2026,"theme_id":610,"num_parts":0,"set_img_url":"https://cdn.rebrickable.com/media/sets/40856-1/168485.jpg","set_url":"https://rebrickable.com/sets/40856-1/the-mandalorian-and-grogu-allies-villains/","last_modified_dt":"2026-02-13T08:14:42.535608Z"},{"set_num":"854327-1","name":"Simba Key Chain","year":2026,"theme_id":503,"num_parts":0,"set_img_url":"https://cdn.rebrickable.com/media/sets/854327-1/164268.jpg","set_url":"https://rebrickable.com/sets/854327-1/simba-key-chain/","last_modified_dt":"2025-12-02T13:55:11.243295Z"},{"set_num":"6581056-1","name":"Series 28 - Sealed Box","year":2026,"theme_id":786,"num_parts":0,"set_img_url":"https://cdn.rebrickable.com/media/sets/6581056-1/163952.jpg","set_url":"https://rebrickable.com/sets/6581056-1/series-28-sealed-box/","last_modified_dt":"2025-12-19T23:08:30.695806Z"},{"set_num":"6614213-1","name":"Bike Burger Cart","year":2026,"theme_id":52,"num_parts":41,"set_img_url":"https://cdn.rebrickable.com/media/sets/6614213-1/166965.jpg","set_url":"https://rebrickable.com/sets/6614213-1/bike-burger-cart/","last_modified_dt":"2026-01-09T19:05:02.595691Z"}]}